# Rhino

mtllib Note2.mtl
g object_1
v -1.75187158584595 0 0.479704141616821
v -1.75187158584595 0.646559119224548 0.479704141616821
v -2.12669134140015 0 0.695039033889771
v -2.12669134140015 0.646559119224548 0.695039033889771
v -2.33854579925537 0 1.03597664833069
v -2.33854579925537 0.646559119224548 1.03597664833069
v -2.29021549224854 0 1.6875011920929
v -2.29021549224854 0.646559119224548 1.6875011920929
v -1.79534387588501 0 2.11402344703674
v -1.79534387588501 0.646559119224548 2.11402344703674
v -1.1438193321228 0 2.06569409370422
v -1.1438193321228 0.646559119224548 2.06569409370422
v -0.717297077178955 0 1.57082200050354
v -0.717297077178955 0.646559119224548 1.57082200050354
v -0.707913398742676 0 1.06630539894104
v -0.707913398742676 0.646559119224548 1.06630539894104
v -0.707913398742676 0 1.06630539894104
v -0.707913398742676 0.646559119224548 1.06630539894104
v -0.765405178070068 0 -0.591336905956268
v -0.765405178070068 0.646559119224548 -0.591336905956268
v -0.847318172454834 0 -1.44797110557556
v -0.847318172454834 0.646559119224548 -1.44797110557556
v -0.847318172454834 0 -1.44797110557556
v -0.847318172454834 0.646559119224548 -1.44797110557556
v -0.12836217880249 0 -1.65171599388123
v -0.12836217880249 0.646559119224548 -1.65171599388123
v 1.61717510223389 0 -1.62311148643494
v 1.61717510223389 0.646559119224548 -1.62311148643494
v 1.61717510223389 0 -1.62311148643494
v 1.61717510223389 0.646559119224548 -1.62311148643494
v 1.53528690338135 0 -0.833575963973999
v 1.53528690338135 0.646559119224548 -0.833575963973999
v 1.45201778411865 0 0.968085527420044
v 1.45201778411865 0.646559119224548 0.968085527420044
v 1.05844879150391 0 1.75708603858948
v 1.05844879150391 0.646559119224548 1.75708603858948
v 1.05844879150391 0 1.75708603858948
v 1.05844879150391 0.646559119224548 1.75708603858948
v 0.717296600341797 0 2.20256066322327
v 0.717296600341797 0.646559119224548 2.20256066322327
v 0.765625953674316 0 2.85408520698547
v 0.765625953674316 0.646559119224548 2.85408520698547
v 1.26049900054932 0 3.28060841560364
v 1.26049900054932 0.646559119224548 3.28060841560364
v 1.91202259063721 0 3.2322781085968
v 1.91202259063721 0.646559119224548 3.2322781085968
v 2.33854579925537 0 2.73740601539612
v 2.33854579925537 0.646559119224548 2.73740601539612
v 2.31739521026611 0 2.14539456367493
v 2.31739521026611 0.646559119224548 2.14539456367493
v 2.31739521026611 0 2.14539456367493
v 2.31739521026611 0.646559119224548 2.14539456367493
v 2.03632831573486 0 -0.530211210250854
v 2.03632831573486 0.646559119224548 -0.530211210250854
v 2.04480457305908 0 -1.75886034965515
v 2.04480457305908 0.646559119224548 -1.75886034965515
v 2.0347785949707 0 -3.28060841560364
v 2.0347785949707 0.646559119224548 -3.28060841560364
v 0.632712364196777 0 -3.0924870967865
v 0.632712364196777 0.646559119224548 -3.0924870967865
v -1.5241494178772 0 -3.20132422447205
v -1.5241494178772 0.646559119224548 -3.20132422447205
v -1.38205909729004 0 0.101105988025665
v -1.38205909729004 0.646559119224548 0.101105988025665
v -1.75187158584595 0 0.479704141616821
v -1.75187158584595 0.646559119224548 0.479704141616821
v 1.68211269378662 0 -2.12675642967224
v 1.68211269378662 0.646559119224548 -2.12675642967224
v 1.16166973114014 0 -2.01769232749939
v 1.16166973114014 0.646559119224548 -2.01769232749939
v 0.746097564697266 0 -1.96849322319031
v 0.746097564697266 0.646559119224548 -1.96849322319031
v 0.390238761901855 0 -1.93737292289734
v 0.390238761901855 0.646559119224548 -1.93737292289734
v 0.0648326873779297 0 -1.91656756401062
v 0.0648326873779297 0.646559119224548 -1.91656756401062
v -0.248899459838867 0 -1.92074179649353
v -0.248899459838867 0.646559119224548 -1.92074179649353
v -0.596804618835449 0 -1.97971701622009
v -0.596804618835449 0.646559119224548 -1.97971701622009
v -0.949597358703613 0 -2.15368247032166
v -0.949597358703613 0.646559119224548 -2.15368247032166
v -0.949597358703613 0 -2.15368247032166
v -0.949597358703613 0.646559119224548 -2.15368247032166
v -0.975617408752441 0 -2.32427954673767
v -0.975617408752441 0.646559119224548 -2.32427954673767
v -0.966300487518311 0 -2.77149081230164
v -0.966300487518311 0.646559119224548 -2.77149081230164
v -0.909089088439941 0 -2.80686640739441
v -0.909089088439941 0.646559119224548 -2.80686640739441
v -0.686681747436523 0 -2.79060912132263
v -0.686681747436523 0.646559119224548 -2.79060912132263
v -0.345540523529053 0 -2.74262595176697
v -0.345540523529053 0.646559119224548 -2.74262595176697
v 0.0640249252319336 0 -2.71715426445007
v 0.0640249252319336 0.646559119224548 -2.71715426445007
v 0.473082542419434 0 -2.72212195396423
v 0.473082542419434 0.646559119224548 -2.72212195396423
v 0.847001075744629 0 -2.76450324058533
v 0.847001075744629 0.646559119224548 -2.76450324058533
v 1.29494571685791 0 -2.88457655906677
v 1.29494571685791 0.646559119224548 -2.88457655906677
v 1.67504024505615 0 -2.87499594688416
v 1.67504024505615 0.646559119224548 -2.87499594688416
v 1.72493743896484 0 -2.61777472496033
v 1.72493743896484 0.646559119224548 -2.61777472496033
v 1.68211269378662 0 -2.12675642967224
v 1.68211269378662 0.646559119224548 -2.12675642967224
v -1.75187158584595 0 0.479704141616821
v -2.12669134140015 0 0.695039033889771
v -2.33854579925537 0 1.03597664833069
v -2.29021549224854 0 1.6875011920929
v -1.79534387588501 0 2.11402344703674
v -1.1438193321228 0 2.06569409370422
v -0.717297077178955 0 1.57082200050354
v -0.707913398742676 0 1.06630539894104
v -0.765405178070068 0 -0.591336905956268
v -0.847318172454834 0 -1.44797110557556
v -0.12836217880249 0 -1.65171599388123
v 1.61717510223389 0 -1.62311148643494
v 1.53528690338135 0 -0.833575963973999
v 1.45201778411865 0 0.968085527420044
v 1.05844879150391 0 1.75708603858948
v 0.717296600341797 0 2.20256066322327
v 0.765625953674316 0 2.85408520698547
v 1.26049900054932 0 3.28060841560364
v 1.91202259063721 0 3.2322781085968
v 2.33854579925537 0 2.73740601539612
v 2.31739521026611 0 2.14539456367493
v 2.03632831573486 0 -0.530211210250854
v 2.04480457305908 0 -1.75886034965515
v 2.0347785949707 0 -3.28060841560364
v 0.632712364196777 0 -3.0924870967865
v -1.5241494178772 0 -3.20132422447205
v -1.38205909729004 0 0.101105988025665
v 1.68211269378662 0 -2.12675642967224
v 1.16166973114014 0 -2.01769232749939
v 0.746097564697266 0 -1.96849322319031
v 0.390238761901855 0 -1.93737292289734
v 0.0648326873779297 0 -1.91656756401062
v -0.248899459838867 0 -1.92074179649353
v -0.596804618835449 0 -1.97971701622009
v -0.949597358703613 0 -2.15368247032166
v -0.975617408752441 0 -2.32427954673767
v -0.966300487518311 0 -2.77149081230164
v -0.909089088439941 0 -2.80686640739441
v -0.686681747436523 0 -2.79060912132263
v -0.345540523529053 0 -2.74262595176697
v 0.0640249252319336 0 -2.71715426445007
v 0.473082542419434 0 -2.72212195396423
v 0.847001075744629 0 -2.76450324058533
v 1.29494571685791 0 -2.88457655906677
v 1.67504024505615 0 -2.87499594688416
v 1.72493743896484 0 -2.61777472496033
v -1.75187158584595 0.646559119224548 0.479704141616821
v -2.12669134140015 0.646559119224548 0.695039033889771
v -2.33854579925537 0.646559119224548 1.03597664833069
v -2.29021549224854 0.646559119224548 1.6875011920929
v -1.79534387588501 0.646559119224548 2.11402344703674
v -1.1438193321228 0.646559119224548 2.06569409370422
v -0.717297077178955 0.646559119224548 1.57082200050354
v -0.707913398742676 0.646559119224548 1.06630539894104
v -0.765405178070068 0.646559119224548 -0.591336905956268
v -0.847318172454834 0.646559119224548 -1.44797110557556
v -0.12836217880249 0.646559119224548 -1.65171599388123
v 1.61717510223389 0.646559119224548 -1.62311148643494
v 1.53528690338135 0.646559119224548 -0.833575963973999
v 1.45201778411865 0.646559119224548 0.968085527420044
v 1.05844879150391 0.646559119224548 1.75708603858948
v 0.717296600341797 0.646559119224548 2.20256066322327
v 0.765625953674316 0.646559119224548 2.85408520698547
v 1.26049900054932 0.646559119224548 3.28060841560364
v 1.91202259063721 0.646559119224548 3.2322781085968
v 2.33854579925537 0.646559119224548 2.73740601539612
v 2.31739521026611 0.646559119224548 2.14539456367493
v 2.03632831573486 0.646559119224548 -0.530211210250854
v 2.04480457305908 0.646559119224548 -1.75886034965515
v 2.0347785949707 0.646559119224548 -3.28060841560364
v 0.632712364196777 0.646559119224548 -3.0924870967865
v -1.5241494178772 0.646559119224548 -3.20132422447205
v -1.38205909729004 0.646559119224548 0.101105988025665
v 1.68211269378662 0.646559119224548 -2.12675642967224
v 1.16166973114014 0.646559119224548 -2.01769232749939
v 0.746097564697266 0.646559119224548 -1.96849322319031
v 0.390238761901855 0.646559119224548 -1.93737292289734
v 0.0648326873779297 0.646559119224548 -1.91656756401062
v -0.248899459838867 0.646559119224548 -1.92074179649353
v -0.596804618835449 0.646559119224548 -1.97971701622009
v -0.949597358703613 0.646559119224548 -2.15368247032166
v -0.975617408752441 0.646559119224548 -2.32427954673767
v -0.966300487518311 0.646559119224548 -2.77149081230164
v -0.909089088439941 0.646559119224548 -2.80686640739441
v -0.686681747436523 0.646559119224548 -2.79060912132263
v -0.345540523529053 0.646559119224548 -2.74262595176697
v 0.0640249252319336 0.646559119224548 -2.71715426445007
v 0.473082542419434 0.646559119224548 -2.72212195396423
v 0.847001075744629 0.646559119224548 -2.76450324058533
v 1.29494571685791 0.646559119224548 -2.88457655906677
v 1.67504024505615 0.646559119224548 -2.87499594688416
v 1.72493743896484 0.646559119224548 -2.61777472496033
vt 0 0
vt 0 0.532325267791748
vt 0.0110646905377507 0
vt 0.0110646905377507 0.532325267791748
vt 0.0221293810755014 0
vt 0.0221293810755014 0.532325267791748
vt 0.0399213507771492 0
vt 0.0399213507771492 0.532325267791748
vt 0.0577133186161518 0
vt 0.0577133186161518 0.532325267791748
vt 0.0755052864551544 0
vt 0.0755052864551544 0.532325267791748
vt 0.0932972580194473 0
vt 0.0932972580194473 0.532325267791748
vt 0.107098504900932 0
vt 0.107098504900932 0.532325267791748
vt 0.107098504900932 0
vt 0.107098504900932 0.532325267791748
vt 0.127537280321121 0
vt 0.127537280321121 0.532325267791748
vt 0.145079672336578 0
vt 0.145079672336578 0.532325267791748
vt 0.145079672336578 0
vt 0.145079672336578 0.532325267791748
vt 0.167767763137817 0
vt 0.167767763137817 0.532325267791748
vt 0.213928490877151 0
vt 0.213928490877151 0.532325267791748
vt 0.213928490877151 0
vt 0.213928490877151 0.532325267791748
vt 0.230932578444481 0
vt 0.230932578444481 0.532325267791748
vt 0.265052646398544 0
vt 0.265052646398544 0.532325267791748
vt 0.276094377040863 0
vt 0.276094377040863 0.532325267791748
vt 0.276094377040863 0
vt 0.276094377040863 0.532325267791748
vt 0.291400581598282 0
vt 0.291400581598282 0.532325267791748
vt 0.309192538261414 0
vt 0.309192538261414 0.532325267791748
vt 0.326984524726868 0
vt 0.326984524726868 0.532325267791748
vt 0.344776481389999 0
vt 0.344776481389999 0.532325267791748
vt 0.362568467855453 0
vt 0.362568467855453 0.532325267791748
vt 0.378713101148605 0
vt 0.378713101148605 0.532325267791748
vt 0.378713101148605 0
vt 0.378713101148605 0.532325267791748
vt 0.392207145690918 0
vt 0.392207145690918 0.532325267791748
vt 0.405701190233231 0
vt 0.405701190233231 0.532325267791748
vt 0.454457461833954 0
vt 0.454457461833954 0.532325267791748
vt 0.531074464321136 0
vt 0.531074464321136 0.532325267791748
vt 0.607691466808319 0
vt 0.607691466808319 0.532325267791748
vt 0.72547835111618 0
vt 0.72547835111618 0.532325267791748
vt 0.738787531852722 0
vt 0.738787531852722 0.532325267791748
vt 0.738787531852722 0
vt 0.738787531852722 0.532325267791748
vt 0.74920791387558 0
vt 0.74920791387558 0.532325267791748
vt 0.759628355503082 0
vt 0.759628355503082 0.532325267791748
vt 0.77004873752594 0
vt 0.77004873752594 0.532325267791748
vt 0.780469119548798 0
vt 0.780469119548798 0.532325267791748
vt 0.790889501571655 0
vt 0.790889501571655 0.532325267791748
vt 0.802312672138214 0
vt 0.802312672138214 0.532325267791748
vt 0.813735783100128 0
vt 0.813735783100128 0.532325267791748
vt 0.813735783100128 0
vt 0.813735783100128 0.532325267791748
vt 0.820737481117249 0
vt 0.820737481117249 0.532325267791748
vt 0.843815803527832 0
vt 0.843815803527832 0.532325267791748
vt 0.8495854139328 0
vt 0.8495854139328 0.532325267791748
vt 0.862278521060944 0
vt 0.862278521060944 0.532325267791748
vt 0.874971568584442 0
vt 0.874971568584442 0.532325267791748
vt 0.887664675712585 0
vt 0.887664675712585 0.532325267791748
vt 0.900357782840729 0
vt 0.900357782840729 0.532325267791748
vt 0.913050830364227 0
vt 0.913050830364227 0.532325267791748
vt 0.93228280544281 0
vt 0.93228280544281 0.532325267791748
vt 0.970746695995331 0
vt 0.970746695995331 0.532325267791748
vt 0.985373318195343 0
vt 0.985373318195343 0.532325267791748
vt 1 0
vt 1 0.532325267791748
vt 0.105030551552773 0.941336929798126
vt 0.111045151948929 0.978816151618958
vt 0.120567984879017 1
vt 0.138765931129456 0.995167374610901
vt 0.150679290294647 0.945683836936951
vt 0.149329364299774 0.880536258220673
vt 0.135506927967072 0.837887167930603
vt 0.121415108442307 0.836948871612549
vt 0.0751149579882622 0.842697620391846
vt 0.0511879958212376 0.850888311862946
vt 0.0454971380531788 0.778998076915741
vt 0.0462961159646511 0.604457497596741
vt 0.0683488845825195 0.61264568567276
vt 0.11867168545723 0.620971977710724
vt 0.140709534287453 0.660325944423676
vt 0.153152242302895 0.694438636302948
vt 0.171350196003914 0.689605951309204
vt 0.183263540267944 0.640122473239899
vt 0.181913614273071 0.574974894523621
vt 0.16809119284153 0.532325804233551
vt 0.151555493474007 0.534440755844116
vt 0.0768222734332085 0.562545299530029
vt 0.0425044521689415 0.561697721481323
vt 0 0.562700271606445
vt 0.00525447865948081 0.702896356582642
vt 0.00221452536061406 0.918566465377808
vt 0.094455786049366 0.904358506202698
vt 0.032228622585535 0.59796416759491
vt 0.0352749265730381 0.650004625320435
vt 0.0366491302847862 0.691558718681335
vt 0.0375183559954166 0.727141916751862
vt 0.0380994826555252 0.759680092334747
vt 0.0379828996956348 0.791050970554352
vt 0.0363356396555901 0.82583886384964
vt 0.0314765572547913 0.861115515232086
vt 0.0267115384340286 0.863717317581177
vt 0.0142203336581588 0.862785696983337
vt 0.0132322600111365 0.857064962387085
vt 0.0136863347142935 0.834825932979584
vt 0.0150265768170357 0.800714373588562
vt 0.0157380141317844 0.759760856628418
vt 0.0155992694199085 0.718858122825623
vt 0.0144155081361532 0.681469142436981
vt 0.0110616898164153 0.636678040027618
vt 0.0113293025642633 0.59867137670517
vt 0.0185138247907162 0.593681991100311
vt 0.105030551552773 0.590988874435425
vt 0.111045151948929 0.553509652614594
vt 0.120567984879017 0.532325804233551
vt 0.138765931129456 0.53715842962265
vt 0.150679290294647 0.5866419672966
vt 0.149329364299774 0.651789546012878
vt 0.135506927967072 0.694438636302948
vt 0.121415108442307 0.695376932621002
vt 0.0751149579882622 0.689628183841705
vt 0.0511879958212376 0.681437492370605
vt 0.0454971380531788 0.75332772731781
vt 0.0462961159646511 0.92786830663681
vt 0.0683488845825195 0.919680118560791
vt 0.11867168545723 0.911353826522827
vt 0.140709534287453 0.871999859809875
vt 0.153152242302895 0.837887167930603
vt 0.171350196003914 0.842719852924347
vt 0.183263540267944 0.892203330993652
vt 0.181913614273071 0.95735090970993
vt 0.16809119284153 1
vt 0.151555493474007 0.997885048389435
vt 0.0768222734332085 0.969780504703522
vt 0.0425044521689415 0.970628082752228
vt 0 0.969625532627106
vt 0.00525447865948081 0.829429447650909
vt 0.00221452536061406 0.613759338855743
vt 0.094455786049366 0.627967298030853
vt 0.032228622585535 0.934361636638641
vt 0.0352749265730381 0.882321178913116
vt 0.0366491302847862 0.840767085552216
vt 0.0375183559954166 0.805183887481689
vt 0.0380994826555252 0.772645711898804
vt 0.0379828996956348 0.741274833679199
vt 0.0363356396555901 0.706486940383911
vt 0.0314765572547913 0.671210289001465
vt 0.0267115384340286 0.668608486652374
vt 0.0142203336581588 0.669540107250214
vt 0.0132322600111365 0.675260841846466
vt 0.0136863347142935 0.697499871253967
vt 0.0150265768170357 0.731611430644989
vt 0.0157380141317844 0.772564947605133
vt 0.0155992694199085 0.813467681407928
vt 0.0144155081361532 0.85085666179657
vt 0.0110616898164153 0.895647764205933
vt 0.0113293025642633 0.933654427528381
vt 0.0185138247907162 0.93864381313324
vn -0.262360841035843 0 -0.9649698138237
vn -0.262360841035843 0 -0.9649698138237
vn -0.701467216014862 0 -0.712701678276062
vn -0.701467216014862 0 -0.712701678276062
vn -0.949657797813416 0 -0.313289165496826
vn -0.949657797813416 0 -0.313289165496826
vn -0.893038332462311 0 0.449980556964874
vn -0.893038332462311 0 0.449980556964874
vn -0.313289165496826 0 0.949657797813416
vn -0.313289165496826 0 0.949657797813416
vn 0.449980556964874 0 0.893038332462311
vn 0.449980556964874 0 0.893038332462311
vn 0.949657797813416 0 0.313289165496826
vn 0.949657797813416 0 0.313289165496826
vn 0.960650861263275 0 -0.277758657932281
vn 0.960650861263275 0 -0.277758657932281
vn 0.999487280845642 0 -0.0320175737142563
vn 0.999487280845642 0 -0.0320175737142563
vn 0.998063802719116 0 -0.0621981807053089
vn 0.998063802719116 0 -0.0621981807053089
vn 0.992318987846375 0 -0.123705603182316
vn 0.992318987846375 0 -0.123705603182316
vn 0.69554203748703 0 0.718485414981842
vn 0.69554203748703 0 0.718485414981842
vn 0.0453097894787788 0 0.99897301197052
vn 0.0453097894787788 0 0.99897301197052
vn -0.226669296622276 0 0.973971784114838
vn -0.226669296622276 0 0.973971784114838
vn -0.992154240608215 0 -0.125019967556
vn -0.992154240608215 0 -0.125019967556
vn -0.997785151004791 0 -0.0665190070867538
vn -0.997785151004791 0 -0.0665190070867538
vn -0.976673364639282 0 -0.214730516076088
vn -0.976673364639282 0 -0.214730516076088
vn -0.744205594062805 0 -0.667950630187988
vn -0.744205594062805 0 -0.667950630187988
vn -0.549993515014648 0 -0.835168957710266
vn -0.549993515014648 0 -0.835168957710266
vn -0.949657797813416 0 -0.313289165496826
vn -0.949657797813416 0 -0.313289165496826
vn -0.893038332462311 0 0.449980556964874
vn -0.893038332462311 0 0.449980556964874
vn -0.313289165496826 0 0.949657797813416
vn -0.313289165496826 0 0.949657797813416
vn 0.449980556964874 0 0.893038332462311
vn 0.449980556964874 0 0.893038332462311
vn 0.949657797813416 0 0.313289165496826
vn 0.949657797813416 0 0.313289165496826
vn 0.924879252910614 0 -0.38026088476181
vn 0.924879252910614 0 -0.38026088476181
vn 0.990981340408325 0 -0.133999973535538
vn 0.990981340408325 0 -0.133999973535538
vn 0.99860018491745 0 -0.0528928562998772
vn 0.99860018491745 0 -0.0528928562998772
vn 0.997218608856201 0 0.0745319500565529
vn 0.997218608856201 0 0.0745319500565529
vn 0.343565255403519 0 -0.939128816127777
vn 0.343565255403519 0 -0.939128816127777
vn -0.0409854874014854 0 -0.999159753322601
vn -0.0409854874014854 0 -0.999159753322601
vn -0.831825494766235 0 -0.555037200450897
vn -0.831825494766235 0 -0.555037200450897
vn -0.89684009552002 0 -0.442354917526245
vn -0.89684009552002 0 -0.442354917526245
vn -0.499195754528046 0 -0.866489231586456
vn -0.499195754528046 0 -0.866489231586456
vn -0.253010869026184 0 -0.967463433742523
vn -0.253010869026184 0 -0.967463433742523
vn -0.153912350535393 0 -0.988084495067596
vn -0.153912350535393 0 -0.988084495067596
vn -0.0898090377449989 0 -0.995958983898163
vn -0.0898090377449989 0 -0.995958983898163
vn -0.0834999233484268 0 -0.99650776386261
vn -0.0834999233484268 0 -0.99650776386261
vn -0.0341886840760708 0 -0.999415397644043
vn -0.0341886840760708 0 -0.999415397644043
vn 0.068873718380928 0 -0.997625410556793
vn 0.068873718380928 0 -0.997625410556793
vn 0.287470072507858 0 -0.957789599895477
vn 0.287470072507858 0 -0.957789599895477
vn 0.582495033740997 0 -0.8128342628479
vn 0.582495033740997 0 -0.8128342628479
vn 0.987802863121033 0 -0.155709519982338
vn 0.987802863121033 0 -0.155709519982338
vn 0.989699006080627 0 -0.14316400885582
vn 0.989699006080627 0 -0.14316400885582
vn 0.789352238178253 0 0.613940596580505
vn 0.789352238178253 0 0.613940596580505
vn 0.240439727902412 0 0.970664083957672
vn 0.240439727902412 0 0.970664083957672
vn -0.174239188432693 0 0.984703361988068
vn -0.174239188432693 0 0.984703361988068
vn -0.0985216125845909 0 0.995134890079498
vn -0.0985216125845909 0 0.995134890079498
vn -0.027217635884881 0 0.999629557132721
vn -0.027217635884881 0 0.999629557132721
vn 0.0569266267120838 0 0.998378336429596
vn 0.0569266267120838 0 0.998378336429596
vn 0.178409650921822 0 0.983956277370453
vn 0.178409650921822 0 0.983956277370453
vn 0.319669634103775 0 0.947529077529907
vn 0.319669634103775 0 0.947529077529907
vn -0.853830575942993 0 0.520550966262817
vn -0.853830575942993 0 0.520550966262817
vn -0.999994039535522 0 -0.00345830665901303
vn -0.999994039535522 0 -0.00345830665901303
vn -0.992255449295044 0 -0.124214254319668
vn -0.992255449295044 0 -0.124214254319668
vn 0 -1 0
vn 0 -1 0
vn 0 -1 0
vn 0 -1 0
vn 0 -1 0
vn 0 -1 0
vn 0 -1 0
vn 0 -1 0
vn 0 -1 0
vn 0 -1 0
vn 0 -1 0
vn 0 -1 0
vn 0 -1 0
vn 0 -1 0
vn 0 -1 0
vn 0 -1 0
vn 0 -1 0
vn 0 -1 0
vn 0 -1 0
vn 0 -1 0
vn 0 -1 0
vn 0 -1 0
vn 0 -1 0
vn 0 -1 0
vn 0 -1 0
vn 0 -1 0
vn 0 -1 0
vn 0 -1 0
vn 0 -1 0
vn 0 -1 0
vn 0 -1 0
vn 0 -1 0
vn 0 -1 0
vn 0 -1 0
vn 0 -1 0
vn 0 -1 0
vn 0 -1 0
vn 0 -1 0
vn 0 -1 0
vn 0 -1 0
vn 0 -1 0
vn 0 -1 0
vn 0 -1 0
vn 0 -1 0
vn 0 -1 0
vn 0 -1 0
vn 0 1 0
vn 0 1 0
vn 0 1 0
vn 0 1 0
vn 0 1 0
vn 0 1 0
vn 0 1 0
vn 0 1 0
vn 0 1 0
vn 0 1 0
vn 0 1 0
vn 0 1 0
vn 0 1 0
vn 0 1 0
vn 0 1 0
vn 0 1 0
vn 0 1 0
vn 0 1 0
vn 0 1 0
vn 0 1 0
vn 0 1 0
vn 0 1 0
vn 0 1 0
vn 0 1 0
vn 0 1 0
vn 0 1 0
vn 0 1 0
vn 0 1 0
vn 0 1 0
vn 0 1 0
vn 0 1 0
vn 0 1 0
vn 0 1 0
vn 0 1 0
vn 0 1 0
vn 0 1 0
vn 0 1 0
vn 0 1 0
vn 0 1 0
vn 0 1 0
vn 0 1 0
vn 0 1 0
vn 0 1 0
vn 0 1 0
vn 0 1 0
vn 0 1 0
f 1/1/1 3/3/3 4/4/4 2/2/2
f 3/3/3 5/5/5 6/6/6 4/4/4
f 5/5/5 7/7/7 8/8/8 6/6/6
f 7/7/7 9/9/9 10/10/10 8/8/8
f 9/9/9 11/11/11 12/12/12 10/10/10
f 11/11/11 13/13/13 14/14/14 12/12/12
f 13/13/13 15/15/15 16/16/16 14/14/14
f 17/17/17 19/19/19 20/20/20 18/18/18
f 19/19/19 21/21/21 22/22/22 20/20/20
f 23/23/23 25/25/25 26/26/26 24/24/24
f 25/25/25 27/27/27 28/28/28 26/26/26
f 29/29/29 31/31/31 32/32/32 30/30/30
f 31/31/31 33/33/33 34/34/34 32/32/32
f 33/33/33 35/35/35 36/36/36 34/34/34
f 37/37/37 39/39/39 40/40/40 38/38/38
f 39/39/39 41/41/41 42/42/42 40/40/40
f 41/41/41 43/43/43 44/44/44 42/42/42
f 43/43/43 45/45/45 46/46/46 44/44/44
f 45/45/45 47/47/47 48/48/48 46/46/46
f 47/47/47 49/49/49 50/50/50 48/48/48
f 51/51/51 53/53/53 54/54/54 52/52/52
f 53/53/53 55/55/55 56/56/56 54/54/54
f 55/55/55 57/57/57 58/58/58 56/56/56
f 57/57/57 59/59/59 60/60/60 58/58/58
f 59/59/59 61/61/61 62/62/62 60/60/60
f 61/61/61 63/63/63 64/64/64 62/62/62
f 63/63/63 65/65/65 66/66/66 64/64/64
f 67/67/67 69/69/69 70/70/70 68/68/68
f 69/69/69 71/71/71 72/72/72 70/70/70
f 71/71/71 73/73/73 74/74/74 72/72/72
f 73/73/73 75/75/75 76/76/76 74/74/74
f 75/75/75 77/77/77 78/78/78 76/76/76
f 77/77/77 79/79/79 80/80/80 78/78/78
f 79/79/79 81/81/81 82/82/82 80/80/80
f 83/83/83 85/85/85 86/86/86 84/84/84
f 85/85/85 87/87/87 88/88/88 86/86/86
f 87/87/87 89/89/89 90/90/90 88/88/88
f 89/89/89 91/91/91 92/92/92 90/90/90
f 91/91/91 93/93/93 94/94/94 92/92/92
f 93/93/93 95/95/95 96/96/96 94/94/94
f 95/95/95 97/97/97 98/98/98 96/96/96
f 97/97/97 99/99/99 100/100/100 98/98/98
f 99/99/99 101/101/101 102/102/102 100/100/100
f 101/101/101 103/103/103 104/104/104 102/102/102
f 103/103/103 105/105/105 106/106/106 104/104/104
f 105/105/105 107/107/107 108/108/108 106/106/106
f 114/114/114 112/112/112 111/111/111
f 110/110/110 116/116/116 111/111/111
f 116/116/116 110/110/110 109/109/109
f 112/112/112 114/114/114 113/113/113
f 111/111/111 116/116/116 115/115/115
f 109/109/109 135/135/135 116/116/116
f 118/118/118 117/117/117 135/135/135
f 116/116/116 135/135/135 117/117/117
f 118/118/118 135/135/135 143/143/143
f 115/115/115 114/114/114 111/111/111
f 134/134/134 143/143/143 135/135/135
f 134/134/134 144/144/144 143/143/143
f 134/134/134 145/145/145 144/144/144
f 147/147/147 146/146/146 134/134/134
f 145/145/145 134/134/134 146/146/146
f 147/147/147 134/134/134 133/133/133
f 140/140/140 119/119/119 141/141/141
f 142/142/142 141/141/141 119/119/119
f 119/119/119 140/140/140 139/139/139
f 148/148/148 147/147/147 133/133/133
f 118/118/118 143/143/143 142/142/142
f 142/142/142 119/119/119 118/118/118
f 149/149/149 148/148/148 133/133/133
f 124/124/124 126/126/126 125/125/125
f 124/124/124 123/123/123 128/128/128
f 123/123/123 122/122/122 129/129/129
f 126/126/126 124/124/124 128/128/128
f 123/123/123 129/129/129 128/128/128
f 129/129/129 122/122/122 130/130/130
f 131/131/131 121/121/121 120/120/120
f 130/130/130 122/122/122 121/121/121
f 130/130/130 121/121/121 131/131/131
f 128/128/128 127/127/127 126/126/126
f 138/138/138 120/120/120 119/119/119
f 139/139/139 138/138/138 119/119/119
f 137/137/137 120/120/120 138/138/138
f 133/133/133 151/151/151 150/150/150
f 152/152/152 151/151/151 133/133/133
f 149/149/149 133/133/133 150/150/150
f 154/154/154 131/131/131 136/136/136
f 120/120/120 137/137/137 136/136/136
f 132/132/132 131/131/131 154/154/154
f 132/132/132 153/153/153 152/152/152
f 154/154/154 153/153/153 132/132/132
f 133/133/133 132/132/132 152/152/152
f 131/131/131 120/120/120 136/136/136
f 160/160/160 157/157/157 158/158/158
f 156/156/156 157/157/157 162/162/162
f 162/162/162 155/155/155 156/156/156
f 158/158/158 159/159/159 160/160/160
f 157/157/157 161/161/161 162/162/162
f 155/155/155 162/162/162 181/181/181
f 164/164/164 181/181/181 163/163/163
f 162/162/162 163/163/163 181/181/181
f 164/164/164 189/189/189 181/181/181
f 161/161/161 157/157/157 160/160/160
f 180/180/180 181/181/181 189/189/189
f 180/180/180 189/189/189 190/190/190
f 180/180/180 190/190/190 191/191/191
f 193/193/193 180/180/180 192/192/192
f 191/191/191 192/192/192 180/180/180
f 193/193/193 179/179/179 180/180/180
f 186/186/186 187/187/187 165/165/165
f 188/188/188 165/165/165 187/187/187
f 165/165/165 185/185/185 186/186/186
f 194/194/194 179/179/179 193/193/193
f 164/164/164 188/188/188 189/189/189
f 188/188/188 164/164/164 165/165/165
f 195/195/195 179/179/179 194/194/194
f 170/170/170 171/171/171 172/172/172
f 170/170/170 174/174/174 169/169/169
f 169/169/169 175/175/175 168/168/168
f 172/172/172 174/174/174 170/170/170
f 169/169/169 174/174/174 175/175/175
f 175/175/175 176/176/176 168/168/168
f 177/177/177 166/166/166 167/167/167
f 176/176/176 167/167/167 168/168/168
f 176/176/176 177/177/177 167/167/167
f 174/174/174 172/172/172 173/173/173
f 184/184/184 165/165/165 166/166/166
f 185/185/185 165/165/165 184/184/184
f 183/183/183 184/184/184 166/166/166
f 179/179/179 196/196/196 197/197/197
f 198/198/198 179/179/179 197/197/197
f 195/195/195 196/196/196 179/179/179
f 200/200/200 182/182/182 177/177/177
f 166/166/166 182/182/182 183/183/183
f 178/178/178 200/200/200 177/177/177
f 178/178/178 198/198/198 199/199/199
f 200/200/200 178/178/178 199/199/199
f 179/179/179 198/198/198 178/178/178
f 177/177/177 182/182/182 166/166/166
